%YAML 1.1
%TAG !u! tag:unity3d.com,2011:
--- !u!114 &11400000
MonoBehaviour:
  m_ObjectHideFlags: 0
  m_CorrespondingSourceObject: {fileID: 0}
  m_PrefabInstance: {fileID: 0}
  m_PrefabAsset: {fileID: 0}
  m_GameObject: {fileID: 0}
  m_Enabled: 1
  m_EditorHideFlags: 0
  m_Script: {fileID: 11500000, guid: 3f1ca63a91b17724bbd99c8fa67e0180, type: 3}
  m_Name: Default Material Palette
  m_EditorClassIdentifier: 
  array:
  - {fileID: 2100000, guid: 31321ba15b8f8eb4c954353edc038b1d, type: 2}
  - {fileID: 2100000, guid: 3f04a4e06510540b28ad44efe9fbec81, type: 2}
  - {fileID: 2100000, guid: 53fe2337c3b5d433ca880b34e811f6a3, type: 2}
  - {fileID: 2100000, guid: dda65c4f068904bb1b8d6b12ac8eb089, type: 2}
  - {fileID: 2100000, guid: 991aae2fea02846c4bf9b5ce5d563e79, type: 2}
  - {fileID: 2100000, guid: 5205539350bff49a793d93db90fabc44, type: 2}
  - {fileID: 2100000, guid: f94c0af4722cd4c65b6344bd7d651c51, type: 2}
  - {fileID: 2100000, guid: 4dd2b3fcb07b7445da2356133820f397, type: 2}
  - {fileID: 2100000, guid: a572ad2098f484d2ea736909325a5ab0, type: 2}
  - {fileID: 2100000, guid: 1d84a74024e854fb9b989a9889c03977, type: 2}
  - {fileID: 2100000, guid: 1706639a398934e079bee440296869ee, type: 2}
  - {fileID: 2100000, guid: 505ade7a9dec4471f8d5a06d1fb4bae2, type: 2}
  - {fileID: 2100000, guid: 095afa398741c44d1a08a1b6eda443b6, type: 2}
